-------------------------------------------------------------------------------
Test set: com.wework.validator.InputFileValidatorTest
-------------------------------------------------------------------------------
Tests run: 2, Failures: 0, Errors: 0, Skipped: 0, Time elapsed: 0.219 sec - in com.wework.validator.InputFileValidatorTest
